/home/a2/especializacao/cartao/src/main/java/br/com/mastertech/cartao/model/Cartao.java
/home/a2/especializacao/cartao/src/main/java/br/com/mastertech/cartao/model/dtos/UpdateCartaoResponse.java
/home/a2/especializacao/cartao/src/main/java/br/com/mastertech/cartao/clients/ClienteClientConfiguration.java
/home/a2/especializacao/cartao/src/main/java/br/com/mastertech/cartao/model/dtos/CartaoMapper.java
/home/a2/especializacao/cartao/src/main/java/br/com/mastertech/cartao/model/dtos/UpdateCartaoRequest.java
/home/a2/especializacao/cartao/src/main/java/br/com/mastertech/cartao/model/dtos/CreateCartaoRequest.java
/home/a2/especializacao/cartao/src/main/java/br/com/mastertech/cartao/repository/CartaoRepository.java
/home/a2/especializacao/cartao/src/main/java/br/com/mastertech/cartao/clients/ClienteClient.java
/home/a2/especializacao/cartao/src/main/java/br/com/mastertech/cartao/model/dtos/CreateCartaoResponse.java
/home/a2/especializacao/cartao/src/main/java/br/com/mastertech/CartaoApplication.java
/home/a2/especializacao/cartao/src/main/java/br/com/mastertech/cartao/service/CartaoService.java
/home/a2/especializacao/cartao/src/main/java/br/com/mastertech/cartao/model/dtos/GetCartaoResponse.java
/home/a2/especializacao/cartao/src/main/java/br/com/mastertech/cartao/model/Cliente.java
/home/a2/especializacao/cartao/src/main/java/br/com/mastertech/cartao/controller/CartaoController.java
/home/a2/especializacao/cartao/src/main/java/br/com/mastertech/cartao/clients/ClienteClientDecoder.java
/home/a2/especializacao/cartao/src/main/java/br/com/mastertech/cartao/exceptions/CartaoNotFoundException.java
